Example-01 (autogenerated) · LWFBrook90.jl
…
insertcols!(df_out_daily, 1, :dates => dates_to_read_out);
show(df_out_daily)
##plot(df_out_daily[:,:dates], Matrix(df_out_daily[:,Not([:dates, :time])]))
##CSV.write(
#    joinpath(out_dir, fname * "_θ_depths_daily.csv"),
#    df_out_daily)

366×7 DataFrame
 Row │ dates                time     θ_10mm    θ_150mm   θ_500mm   θ_1000mm  θ ⋯
     │ DateTime             Float64  Float64   Float64   Float64   Float64   F ⋯
─────┼──────────────────────────────────────────────────────────────────────────
   1 │ 2021-01-01T00:00:00      0.0  0.200587  0.200587  0.200587  0.200587  0 ⋯
   2 │ 2021-01-02T00:00:00      1.0  0.195189  0.199116  0.203679  0.2013    0
   3 │ 2021-01-03T00:00:00      2.0  0.19362   0.197972  0.205324  0.202463  0
   4 │ 2021-01-04T00:00:00      3.0  0.192807  0.197298  0.206038  0.203769  0
   5 │ 2021-01-05T00:00:00      4.0  0.192393  0.19691   0.20635   0.205124  0 ⋯
   6 │ 2021-01-06T00:00:00      5.0  0.192124  0.196648  0.206501  0.206435  0
   7 │ 2021-01-07T00:00:00      6.0  0.192024  0.196533  0.206607  0.207652  0
   8 │ 2021-01-08T00:00:00      7.0  0.191919  0.196427  0.206691  0.208756  0
  ⋮  │          ⋮              ⋮        ⋮         ⋮         ⋮         ⋮        ⋱
 360 │ 2021-12-26T00:00:00    359.0  0.192669  0.197482  0.210105  0.221148  0 ⋯
 361 │ 2021-12-27T00:00:00    360.0  0.19261   0.1974    0.209935  0.220924  0
 362 │ 2021-12-28T00:00:00    361.0  0.192623  0.197387  0.209798  0.220705  0
 363 │ 2021-12-29T00:00:00    362.0  0.192725  0.19746   0.209726  0.220495  0
 364 │ 2021-12-30T00:00:00    363.0  0.280244  0.284455  0.244632  0.220354  0 ⋯
 365 │ 2021-12-31T00:00:00    364.0  0.25555   0.267545  0.302739  0.22528   0
 366 │ 2022-01-01T00:00:00    365.0  0.245386  0.257208  0.295146  0.279607  0
                                                   1 column and 351 rows omitted
…
